…
Selecting our best AdaBoost model

Occam’s razor - all other things equal, go with the simplest model :)

Since our Kaggle task is to predict who will survive and who will not, our ideal metric is accuracy. In our case, we will pick the model that has the highest test accuracy.

adaboost_metrics %>% 
  top_n(1, accuracy)

## # A tibble: 34 x 11
##    algo  tree_depth n_trees accuracy precision recall f1_score training_accura…
##    <chr>      <int>   <dbl>    <dbl>     <dbl>  <dbl>    <dbl>            <dbl>
##  1 AdaB…          5      10    0.889     0.833  0.833    0.833            0.893
##  2 AdaB…          5      40    0.889     0.857  0.8      0.828            0.966
##  3 AdaB…          5      50    0.889     0.833  0.833    0.833            0.964
##  4 AdaB…          5      60    0.889     0.833  0.833    0.833            0.964
##  5 AdaB…          5      70    0.889     0.833  0.833    0.833            0.964
##  6 AdaB…          5      80    0.889     0.833  0.833    0.833            0.964
##  7 AdaB…          5      90    0.889     0.833  0.833    0.833            0.964
##  8 AdaB…          5     100    0.889     0.833  0.833    0.833            0.964
##  9 AdaB…          5     110    0.889     0.833  0.833    0.833            0.964
## 10 AdaB…          5     120    0.889     0.833  0.833    0.833            0.964
## # … with 24 more rows, and 3 more variables: training_precision <dbl>,
## #   training_recall <dbl>, training_f1_score <dbl>
…
